{
  "project_info": {
    "project_number": "133692227629",
    "project_id": "vegas-adventures",
    "storage_bucket": "vegas-adventures.appspot.com"
  },
  "client": [
    {
      "client_info": {
        "mobilesdk_app_id": "1:133692227629:android:e2049355e5640c773938a4",
        "android_client_info": {
          "package_name": "ip.bluemedusa.vegasadventures"
        }
      },
      "oauth_client": [
        {
          "client_id": "133692227629-17q7nj4d4grgfuf4v3fqdgelfsaep6pg.apps.googleusercontent.com",
          "client_type": 3
        }
      ],
      "api_key": [
        {
          "current_key": "AIzaSyBadMVb3si8p4PDffoWWqHq4xY69lhGdWg"
        }
      ],
      "services": {
        "appinvite_service": {
          "other_platform_oauth_client": [
            {
              "client_id": "133692227629-17q7nj4d4grgfuf4v3fqdgelfsaep6pg.apps.googleusercontent.com",
              "client_type": 3
            }
          ]
        }
      }
    }
  ],
  "configuration_version": "1"
}